<?xml version="1.0" encoding="utf-8"?>
<!-- Generator: Adobe Illustrator 16.0.4, SVG Export Plug-In . SVG Version: 6.00 Build 0)  -->
<!DOCTYPE svg PUBLIC "-//W3C//DTD SVG 1.1//EN" "http://www.w3.org/Graphics/SVG/1.1/DTD/svg11.dtd">
<svg version="1.1" id="Layer_1" xmlns="http://www.w3.org/2000/svg" xmlns:xlink="http://www.w3.org/1999/xlink" x="0px" y="0px"
	 width="108px" height="100px" viewBox="0 0 108 100" enable-background="new 0 0 108 100" xml:space="preserve">
<path fill="#219EA2" d="M54,47.313c7.479,0,13.565-6.041,13.565-13.465c0-7.425-6.085-13.466-13.565-13.466
	c-7.48,0-13.565,6.041-13.565,13.466C40.435,41.272,46.52,47.313,54,47.313z M54,23.84c5.559,0,10.081,4.49,10.081,10.007
	c0,5.518-4.522,10.007-10.081,10.007s-10.081-4.489-10.081-10.007C43.919,28.33,48.441,23.84,54,23.84z"/>
<path fill="#219EA2" d="M54,50.896c-8.458,0-15.975,5.031-19.151,12.816c-0.361,0.885,0.069,1.893,0.961,2.252
	c0.892,0.359,1.907-0.068,2.269-0.954c2.641-6.473,8.89-10.656,15.922-10.656c7.031,0,13.281,4.183,15.922,10.656
	c0.274,0.673,0.927,1.081,1.615,1.081c0.218,0,0.439-0.041,0.653-0.127c0.892-0.359,1.322-1.367,0.961-2.252
	C69.975,55.927,62.458,50.896,54,50.896z"/>
<path fill="#219EA2" d="M59.184,79.968H48.816c-0.962,0-1.742,0.774-1.742,1.729s0.78,1.729,1.742,1.729h10.367
	c0.962,0,1.742-0.774,1.742-1.729S60.146,79.968,59.184,79.968z"/>
<path fill="#219EA2" d="M107.997,88.932c-0.001-0.023-0.002-0.046-0.004-0.069c-0.003-0.05-0.01-0.099-0.018-0.147
	c-0.002-0.016-0.004-0.032-0.007-0.048c-0.026-0.135-0.067-0.264-0.123-0.386c-0.002-0.005-0.004-0.011-0.006-0.017l-7.47-16.038
	V20.183c0-4.437-3.636-8.046-8.106-8.046H65.112V1.729C65.112,0.774,64.332,0,63.37,0H44.63c-0.962,0-1.742,0.774-1.742,1.729
	v10.407H15.736c-4.47,0-8.106,3.609-8.106,8.046v52.044L0.161,88.265c-0.002,0.005-0.004,0.011-0.006,0.017
	c-0.056,0.122-0.097,0.25-0.123,0.385c-0.003,0.017-0.005,0.033-0.007,0.05c-0.008,0.048-0.014,0.096-0.017,0.144
	c-0.002,0.024-0.003,0.047-0.004,0.071C0.002,88.952,0,88.971,0,88.99v9.281C0,99.226,0.78,100,1.742,100h104.516
	c0.962,0,1.742-0.774,1.742-1.729V88.99C108,88.97,107.998,88.951,107.997,88.932z M46.372,3.458h15.256v8.678H46.372V3.458
	L46.372,3.458z M11.114,20.183c0-2.53,2.073-4.588,4.622-4.588h76.527c2.549,0,4.622,2.058,4.622,4.588v50.696H11.114V20.183z
	 M10.486,74.336h87.028l6.02,12.925H4.466L10.486,74.336z M104.516,96.542H3.484V90.72h101.032V96.542z"/>
<path fill="#219EA2" d="M54,5.951c-1.026,0-1.86,0.829-1.86,1.847c0,1.018,0.834,1.846,1.86,1.846c1.025,0,1.86-0.829,1.86-1.846
	C55.86,6.779,55.025,5.951,54,5.951z"/>
</svg>
