<?xml version="1.0" encoding="utf-8"?>
<!-- Generator: Adobe Illustrator 18.1.0, SVG Export Plug-In . SVG Version: 6.00 Build 0)  -->
<!DOCTYPE svg PUBLIC "-//W3C//DTD SVG 1.1//EN" "http://www.w3.org/Graphics/SVG/1.1/DTD/svg11.dtd">
<svg version="1.1" id="Layer_1" xmlns="http://www.w3.org/2000/svg" xmlns:xlink="http://www.w3.org/1999/xlink" x="0px" y="0px"
	 viewBox="0 0 876 206" enable-background="new 0 0 876 206" xml:space="preserve">
<g>
	<path d="M8,7.8h62.8c15.2,0,29.7,1.7,43.4,5.1c13.7,3.4,25.6,8.9,35.8,16.5c10.2,7.6,18.3,17.5,24.3,29.7c6,12.2,9,27,9,44.4
		c0,15.4-2.9,29-8.7,40.7c-5.8,11.7-13.7,21.6-23.5,29.6c-9.8,8-21.2,14-34.1,18.1c-12.9,4.1-26.4,6.2-40.5,6.2H8V7.8z M49.9,159.5
		h21.8c9.7,0,18.7-1,27-3c8.3-2,15.5-5.2,21.6-9.8c6.1-4.6,10.9-10.6,14.4-18c3.5-7.4,5.2-16.5,5.2-27.3c0-9.3-1.7-17.4-5.2-24.3
		c-3.5-6.9-8.2-12.6-14.1-17.1c-5.9-4.5-12.8-7.8-20.8-10.1c-8-2.2-16.3-3.4-25.1-3.4H49.9V159.5z"/>
	<path d="M320.7,57.3c-4.1-5-9.2-8.9-15.2-11.6c-6-2.7-12.9-4-20.8-4c-7.9,0-15.2,1.5-21.9,4.6c-6.7,3-12.5,7.3-17.5,12.8
		c-4.9,5.5-8.8,12-11.5,19.5c-2.8,7.5-4.2,15.7-4.2,24.5c0,9,1.4,17.2,4.2,24.6c2.8,7.4,6.6,13.9,11.4,19.4
		c4.8,5.5,10.5,9.7,17.1,12.8c6.5,3.1,13.6,4.6,21.1,4.6c8.6,0,16.2-1.8,22.8-5.4c6.6-3.6,12.1-8.6,16.4-15.1l34.9,26.1
		c-8.1,11.3-18.3,19.6-30.6,25c-12.4,5.4-25.1,8.1-38.1,8.1c-14.9,0-28.6-2.3-41.1-7c-12.5-4.7-23.4-11.3-32.5-20
		c-9.1-8.7-16.2-19.2-21.3-31.6c-5.1-12.4-7.7-26.2-7.7-41.4c0-15.2,2.6-29,7.7-41.4c5.1-12.4,12.2-22.9,21.3-31.6
		c9.1-8.7,20-15.4,32.5-20c12.5-4.7,26.2-7,41.1-7c5.4,0,11,0.5,16.8,1.5c5.8,1,11.5,2.6,17.2,4.7c5.6,2.2,11.1,5,16.2,8.6
		c5.2,3.6,9.8,8,14,13.2L320.7,57.3z"/>
	<path d="M385.1,7.8h41.9v190.3h-41.9V7.8z"/>
	<path d="M446.7,67.5h38.7v17.7h0.5c1.3-2.5,3-5,5.4-7.5c2.3-2.5,5.1-4.7,8.3-6.7c3.2-2,6.9-3.6,11-4.8c4.1-1.3,8.6-1.9,13.4-1.9
		c10.2,0,18.4,1.6,24.7,4.7c6.3,3.1,11.1,7.5,14.6,13c3.5,5.6,5.9,12.1,7.1,19.6c1.3,7.5,1.9,15.7,1.9,24.5v72H532v-64
		c0-3.8-0.1-7.7-0.4-11.7c-0.3-4-1.1-7.7-2.4-11.2c-1.3-3.4-3.4-6.2-6.2-8.3c-2.8-2.2-6.8-3.2-12-3.2c-5.2,0-9.4,0.9-12.6,2.8
		c-3.2,1.9-5.7,4.4-7.4,7.5c-1.7,3.1-2.8,6.7-3.4,10.6c-0.5,3.9-0.8,8.1-0.8,12.4v65.1h-40.3V67.5z"/>
	<path d="M588.1,67.5h38.7v17.7h0.5c1.3-2.5,3-5,5.4-7.5c2.3-2.5,5.1-4.7,8.3-6.7c3.2-2,6.9-3.6,11-4.8c4.1-1.3,8.6-1.9,13.4-1.9
		c10.2,0,18.4,1.6,24.7,4.7c6.3,3.1,11.1,7.5,14.6,13c3.5,5.6,5.9,12.1,7.1,19.6c1.3,7.5,1.9,15.7,1.9,24.5v72h-40.3v-64
		c0-3.8-0.1-7.7-0.4-11.7c-0.3-4-1.1-7.7-2.4-11.2c-1.3-3.4-3.4-6.2-6.2-8.3c-2.8-2.2-6.8-3.2-12-3.2c-5.2,0-9.4,0.9-12.6,2.8
		c-3.2,1.9-5.7,4.4-7.4,7.5c-1.7,3.1-2.8,6.7-3.4,10.6c-0.5,3.9-0.8,8.1-0.8,12.4v65.1h-40.3V67.5z"/>
	<path d="M723,132.8c0-10.4,1.9-19.8,5.6-28.2c3.8-8.4,8.9-15.6,15.4-21.6c6.5-6,14.2-10.6,23.1-13.8c8.9-3.2,18.3-4.8,28.3-4.8
		c10,0,19.5,1.6,28.3,4.8c8.9,3.2,16.6,7.8,23.1,13.8c6.5,6,11.7,13.2,15.4,21.6c3.8,8.4,5.6,17.8,5.6,28.2
		c0,10.4-1.9,19.8-5.6,28.2c-3.8,8.4-8.9,15.6-15.4,21.6c-6.5,6-14.2,10.6-23.1,13.8c-8.9,3.2-18.3,4.8-28.3,4.8
		c-10,0-19.5-1.6-28.3-4.8c-8.9-3.2-16.6-7.8-23.1-13.8c-6.5-6-11.7-13.2-15.4-21.6C724.9,152.6,723,143.2,723,132.8z M763.3,132.8
		c0,9.9,2.8,17.8,8.5,23.9c5.6,6.1,13.6,9.1,23.8,9.1c10.2,0,18.1-3,23.8-9.1c5.6-6.1,8.5-14.1,8.5-23.9c0-9.9-2.8-17.8-8.5-23.9
		c-5.6-6.1-13.6-9.1-23.8-9.1c-10.2,0-18.1,3-23.8,9.1C766.1,115,763.3,123,763.3,132.8z"/>
</g>
</svg>
